NC-94,Critical,Untriaged,"[Sunrise] Database upgrade fails during service minor version upgrade",2016-04-27,"https://incognitosoftware.atlassian.net/browse/NC-94",https://incognito.my.salesforce.com/500C0000010SrkZIAS,P2
UMS-81,Major,Untriaged,"UMS fails to start via init script or systemctl on EL7",2016-05-20,"https://incognitosoftware.atlassian.net/browse/UMS-81", , 
UMS-74,Major,Untriaged,"Service sometimes fail to use other LDAP endpoints if multiple endpoints are configured",2016-04-27,"https://incognitosoftware.atlassian.net/browse/UMS-74", , 
UMS-72,Major,Untriaged,"WMC:UMS REST endpoint is not configurable",2016-04-20,"https://incognitosoftware.atlassian.net/browse/UMS-72", , 
UMS-64,Major,Untriaged,"Database initialization failed if DB users password contains @",2016-03-30,"https://incognitosoftware.atlassian.net/browse/UMS-64", , 
UMS-48,Major,Untriaged,"On a server restart UMS not starting due to relation umsxtransaction already exists",2015-09-16,"https://incognitosoftware.atlassian.net/browse/UMS-48", , 
UMS-37,Major,Untriaged,"Serializing UMS via GUI gives ERROR but still works",2015-08-05,"https://incognitosoftware.atlassian.net/browse/UMS-37", , 
UMS-36,Major,Untriaged,"umsd failed to serialize proper key complaining about version.",2015-08-05,"https://incognitosoftware.atlassian.net/browse/UMS-36", , 
UMS-33,Major,Untriaged,"Name change for Nashorn from JSE to IES",2015-06-24,"https://incognitosoftware.atlassian.net/browse/UMS-33", , 
UMS-28,Major,Untriaged,"Securing tomcat leads to unexpected error",2015-03-31,"https://incognitosoftware.atlassian.net/browse/UMS-28", , 
UMS-24,Major,Untriaged,"WMC needs support for KPI (Iridium) in GUI.",2014-11-05,"https://incognitosoftware.atlassian.net/browse/UMS-24", , 
UMS-12,Major,Untriaged,"UMSWMC incompatible with java6 ",2014-07-16,"https://incognitosoftware.atlassian.net/browse/UMS-12", , 
UMS-9,Major,In Development,"UMS wheezy service builds for BAR GA",2014-07-04,"https://incognitosoftware.atlassian.net/browse/UMS-9", ,P2
SDM-283,Major,Untriaged,"Implement legends for all tables in SDM",2016-01-25,"https://incognitosoftware.atlassian.net/browse/SDM-283", , 
SDM-259,Major,Untriaged,"Wilcard doesnt work with search keyword operation",2015-09-18,"https://incognitosoftware.atlassian.net/browse/SDM-259", , 
SDM-258,Major,Untriaged,"Filtering by Status returns incorrect search results",2015-09-18,"https://incognitosoftware.atlassian.net/browse/SDM-258", , 
SDM-257,Major,Untriaged,"Fix typos and grammar in search responses",2015-09-18,"https://incognitosoftware.atlassian.net/browse/SDM-257", , 
SDM-252,Major,Untriaged,"SDMs install location is not LSB compliant (in opt directory)",2015-09-11,"https://incognitosoftware.atlassian.net/browse/SDM-252", , 
SDM-240,Major,Untriaged,"Search by Keyword (magnifying glass) is not intuitive",2015-09-08,"https://incognitosoftware.atlassian.net/browse/SDM-240", , 
SDM-238,Major,Untriaged,"No way to search text in long scripts/modules",2015-09-02,"https://incognitosoftware.atlassian.net/browse/SDM-238", , 
SDM-235,Major,In Development,"SDM job execution never shows script errors",2015-08-20,"https://incognitosoftware.atlassian.net/browse/SDM-235", , 
NDP-126,Major,In Development,"NDP with expired serial key will not start properly - throws null pointer exception",2016-01-15,"https://incognitosoftware.atlassian.net/browse/NDP-126", , 
NDP-122,Major,Untriaged,"GUI description for JDBC_DATA_SOURCE parameter  contains an error",2015-09-17,"https://incognitosoftware.atlassian.net/browse/NDP-122", , 
NDP-119,Major,Untriaged,"[MediaCom] Ndps remote log level is not synchronized with the disk log level",2015-07-13,"https://incognitosoftware.atlassian.net/browse/NDP-119", , 
NDP-101,Major,Untriaged,"?Node list view has nodes which dont have interface information but popup shows interfaces",2014-08-01,"https://incognitosoftware.atlassian.net/browse/NDP-101", , 
NC-89,Major,Open,"[BT] After BIND upgrade zones are not accessible",2016-01-27,"https://incognitosoftware.atlassian.net/browse/NC-89",https://incognito.my.salesforce.com/500C000000y3l5YIAQ,P1
NC-86,Major,Untriaged,"DNSZones cannot be imported through dmsjdk",2015-12-02,"https://incognitosoftware.atlassian.net/browse/NC-86", , 
NC-83,Major,Untriaged,"NC Puppet does not start on boot",2015-10-28,"https://incognitosoftware.atlassian.net/browse/NC-83", , 
NC-65,Major,Untriaged,"NCSS providing out of date zone information on AXFR - does not match what is in DB",2015-07-09,"https://incognitosoftware.atlassian.net/browse/NC-65",https://incognito.my.salesforce.com/500C000000syILcIAM, 
NC-52,Major,Untriaged,"Postgres DB installer doesnt recognize size abbreviations (e.g. K M)",2015-01-16,"https://incognitosoftware.atlassian.net/browse/NC-52", , 
NC-51,Major,Untriaged,"WMC: clicking a NC zone option shows ipms option name in the title of page",2014-12-15,"https://incognitosoftware.atlassian.net/browse/NC-51", , 
NC-50,Major,Untriaged,"[Level3]NCSS resource drain",2014-12-09,"https://incognitosoftware.atlassian.net/browse/NC-50",https://incognito.my.salesforce.com/500C000000hEXSuIAO, 
NC-41,Major,In Development,"Create Name Commander Installation Guide",2014-08-11,"https://incognitosoftware.atlassian.net/browse/NC-41", , 
NC-37,Major,Untriaged,"Unicode characters in zone/record names will cause XML parsing to fail",2014-08-06,"https://incognitosoftware.atlassian.net/browse/NC-37", , 
NC-34,Major,Untriaged,"NCSS fails to retry on next CNS in list on failed DMS update",2014-05-30,"https://incognitosoftware.atlassian.net/browse/NC-34", , 
AC-3423,Major,Untriaged,"Negative trends are reported as N/A in utilization report ",2016-06-01,"https://incognitosoftware.atlassian.net/browse/AC-3423", , 
AC-3419,Major,Untriaged,"Filtering on grouped % in reports does not work",2016-05-31,"https://incognitosoftware.atlassian.net/browse/AC-3419", , 
AC-3418,Major,Untriaged,"WMC: Throws and Error when a opening a task from the history list ",2016-05-30,"https://incognitosoftware.atlassian.net/browse/AC-3418", , 
AC-3415,Major,In Development,"Report Display does not show some subtotals",2016-05-30,"https://incognitosoftware.atlassian.net/browse/AC-3415", , 
AC-3413,Major,Open,"All REST notifications dont work on Solaris",2016-05-27,"https://incognitosoftware.atlassian.net/browse/AC-3413", , 
AC-3409,Major,Untriaged,"IPMS fails to start via init script or systemctl on EL7",2016-05-24,"https://incognitosoftware.atlassian.net/browse/AC-3409", , 
AC-3399,Major,Untriaged,"[BHN] IPMS: subdivided subnets have utilization as 0% after dhcp discovery",2016-05-19,"https://incognitosoftware.atlassian.net/browse/AC-3399", , 
AC-3386,Major,Untriaged,"Stressing  AC Portal with more then 20 users",2016-05-13,"https://incognitosoftware.atlassian.net/browse/AC-3386", , 
AC-3298,Major,Untriaged,"WMC is not working with Java 8",2016-04-19,"https://incognitosoftware.atlassian.net/browse/AC-3298", , 
AC-3293,Major,Untriaged,"Potential Deadlock in Corba when running WMC in the LRE",2016-04-18,"https://incognitosoftware.atlassian.net/browse/AC-3293", , 
AC-3292,Major,Untriaged,"[Sunrise] AC/NC Memory Issues - Customer asked to Upgrade to 5.7.9",2016-04-18,"https://incognitosoftware.atlassian.net/browse/AC-3292",https://incognito.my.salesforce.com/500C000000zpiV7IAI, 
AC-3284,Major,Untriaged,"User Import doesnt correctly manage double quote content in datafile",2016-04-13,"https://incognitosoftware.atlassian.net/browse/AC-3284", , 
AC-3277,Major,Untriaged,"WMC: no support for UDA format of : boolean/email/domainname/ipv6",2016-04-05,"https://incognitosoftware.atlassian.net/browse/AC-3277", , 
AC-3241,Major,Untriaged,"Inconsistent Device Vendors/Models State after Device Import",2016-03-24,"https://incognitosoftware.atlassian.net/browse/AC-3241", , 
AC-3225,Major,Untriaged,"QA: handle wmctest not existing request link failures in auto tests",2016-03-09,"https://incognitosoftware.atlassian.net/browse/AC-3225", , 
AC-3220,Major,Open,"[L3] ACIT not using assignment Template",2016-03-09,"https://incognitosoftware.atlassian.net/browse/AC-3220", , 
AC-3213,Major,Untriaged,"Search subnet group REST api fails if there is no utilization snapshot available",2016-03-04,"https://incognitosoftware.atlassian.net/browse/AC-3213", , 
AC-3205,Major,Untriaged,"ACWS SOAP/API Call",2016-03-02,"https://incognitosoftware.atlassian.net/browse/AC-3205",https://incognito.my.salesforce.com/500C000000zN5qWIAS, 
AC-3167,Major,Untriaged,"IPMS Crash if access before service ready",2016-02-29,"https://incognitosoftware.atlassian.net/browse/AC-3167", , 
AC-3162,Major,Untriaged,"Canceling a Device Dicovery Task prematurely will not stop the service from executing the step it is in at the point of cancellation. ",2016-02-29,"https://incognitosoftware.atlassian.net/browse/AC-3162", , 
AC-3158,Major,Untriaged,"WMC: Entity user cannot request assignment from Device Interface page",2016-02-24,"https://incognitosoftware.atlassian.net/browse/AC-3158", , 
AC-3121,Major,Untriaged,"QA: the block audit report tests cause timeout on integrator1",2016-02-04,"https://incognitosoftware.atlassian.net/browse/AC-3121", , 
AC-3107,Major,Untriaged,"snapshot fails to generate - production issue",2016-01-25,"https://incognitosoftware.atlassian.net/browse/AC-3107",https://incognito.my.salesforce.com/500C000000y40alIAA, 
AC-3088,Major,Untriaged,"Attempting to use delete button while viewing a report does not work",2016-01-14,"https://incognitosoftware.atlassian.net/browse/AC-3088", , 
AC-3074,Major,Untriaged,"[TWC] First/second logins dont work after tomcat server is restarted",2016-01-04,"https://incognitosoftware.atlassian.net/browse/AC-3074", , 
AC-3066,Major,Untriaged,"[GCI] Management IP not discovered",2015-12-21,"https://incognitosoftware.atlassian.net/browse/AC-3066",https://incognito.my.salesforce.com/500C000000xDITiIAO, 
AC-3062,Major,Untriaged,"RELNOTE: Exporting table data does not work properly when using customized table configuration on WMC",2015-12-17,"https://incognitosoftware.atlassian.net/browse/AC-3062", , 
AC-3031,Major,Untriaged,"Re-organization of DB (PostgreSQL Oracle & MySQL) Client Library connection install steps contain false assumptions and inflexible in comparison to version 5.6/5.7 ",2015-12-02,"https://incognitosoftware.atlassian.net/browse/AC-3031", , 
AC-3004,Major,Untriaged,"WMC or SDM: communication to mulitiple REST endpoints might fail",2015-11-20,"https://incognitosoftware.atlassian.net/browse/AC-3004", , 
AC-2999,Major,Untriaged,"IPMS:Attempting to create static not assigned nodes on a DHCP associated subnet always create static assigned nodes",2015-11-19,"https://incognitosoftware.atlassian.net/browse/AC-2999", , 
AC-2980,Major,Untriaged,"all install script cannot install IES without installing UI components",2015-11-06,"https://incognitosoftware.atlassian.net/browse/AC-2980", , 
AC-2970,Major,Untriaged,"[IRP] Ability for client to write to service logs",2015-10-29,"https://incognitosoftware.atlassian.net/browse/AC-2970", , 
AC-2960,Major,Untriaged,"RELONTE: The Scheduling hour recurrent tasks close to midnight start time is problematic",2015-10-26,"https://incognitosoftware.atlassian.net/browse/AC-2960", , 
AC-2952,Major,Untriaged,"WorksForNow - POST http://{host}/subnets/request-assignment returns the wrong JSON",2015-10-22,"https://incognitosoftware.atlassian.net/browse/AC-2952", , 
AC-2931,Major,Untriaged,"Utilization task scheduling stops working properly when disrupted ",2015-10-08,"https://incognitosoftware.atlassian.net/browse/AC-2931", , 
AC-2930,Major,Untriaged,"Error message for invalid ID for Utilization Rest Request is not correct",2015-10-08,"https://incognitosoftware.atlassian.net/browse/AC-2930", , 
AC-2906,Major,Untriaged,"[L3] Default v6 mask size not aligned with SST prefix size range",2015-09-24,"https://incognitosoftware.atlassian.net/browse/AC-2906", , 
AC-2892,Major,Untriaged,"IRP:Update java base service to have explicit version dependency ",2015-09-18,"https://incognitosoftware.atlassian.net/browse/AC-2892", , 
AC-2891,Major,Untriaged,"*IPMS creates differences for All devices when doing a regional or type scan",2015-09-18,"https://incognitosoftware.atlassian.net/browse/AC-2891", , 
AC-2883,Major,Untriaged,"*Duplicate name violation when deploying two subnets in the same second.",2015-09-15,"https://incognitosoftware.atlassian.net/browse/AC-2883", , 
AC-2843,Major,Untriaged,"ACIT reports error when importing subnet with incorrectly masked CIDR",2015-09-03,"https://incognitosoftware.atlassian.net/browse/AC-2843", , 
AC-2584,Major,Untriaged,"Auto test failures related to RIR - probably bad data setup",2015-07-21,"https://incognitosoftware.atlassian.net/browse/AC-2584", , 
AC-2538,Major,Untriaged,"Incorrect error for entity user without permission to request a subnet",2015-07-14,"https://incognitosoftware.atlassian.net/browse/AC-2538", , 
AC-2488,Major,Untriaged,"Performing a delete while logged in on entity-user on entity-users own entity succeeds in UMS",2015-06-30,"https://incognitosoftware.atlassian.net/browse/AC-2488", , 
AC-2454,Major,Untriaged,"[Blocked by BCC DHCP bug]Disabled Rule is removed from a Deployed and DHCP Managed Subnet",2015-06-22,"https://incognitosoftware.atlassian.net/browse/AC-2454", , 
AC-2439,Major,Untriaged,"Error page when searching for DHCP with Java 8",2015-06-17,"https://incognitosoftware.atlassian.net/browse/AC-2439", , 
AC-2356,Major,Untriaged,"[GCable] acit export and imps report can not handle chinese character properly",2015-06-05,"https://incognitosoftware.atlassian.net/browse/AC-2356", , 
AC-2355,Major,Untriaged,"[GCable] dynamic IP license can not be counted rightly",2015-06-05,"https://incognitosoftware.atlassian.net/browse/AC-2355", , 
AC-2287,Major,Untriaged,"[GCable] After installing ISMP service will not start",2015-05-27,"https://incognitosoftware.atlassian.net/browse/AC-2287", , 
AC-2281,Major,Untriaged,"Differing subnet properties (SSTs etc) do not prevent system generated blocks from being removed during subdivide",2015-05-26,"https://incognitosoftware.atlassian.net/browse/AC-2281", , 
AC-2197,Major,Untriaged,"can not display next start time for scheduled report  properly",2015-05-11,"https://incognitosoftware.atlassian.net/browse/AC-2197", , 
AC-2184,Major,Untriaged,"Subnet not cleaned up when rule moved to other DHCP",2015-05-04,"https://incognitosoftware.atlassian.net/browse/AC-2184", , 
AC-2068,Major,Untriaged,"QA:automatically backing up the jenkins shell scripts doesnt work ",2015-04-07,"https://incognitosoftware.atlassian.net/browse/AC-2068", , 
AC-2064,Major,Untriaged,"WMC: Cant delete report from View Report screen",2015-04-02,"https://incognitosoftware.atlassian.net/browse/AC-2064", , 
AC-1768,Major,Untriaged,"Sasktel NAPTR record creation with regex allows creating of invalid records",2015-02-04,"https://incognitosoftware.atlassian.net/browse/AC-1768",https://incognito.my.salesforce.com/500C000000jBYLAIA4, 
AC-1750,Major,Untriaged,"[QA?] ACIT: Problem importing block",2015-02-03,"https://incognitosoftware.atlassian.net/browse/AC-1750", , 
AC-1733,Major,Untriaged,"[Megacable] Name of the devices are overwritten after the DHCP Discovery Task",2015-01-29,"https://incognitosoftware.atlassian.net/browse/AC-1733", , 
AC-1710,Major,Untriaged,"IPMS will allow connections from an outdated JDK Client",2015-01-27,"https://incognitosoftware.atlassian.net/browse/AC-1710", , 
AC-1690,Major,Untriaged,"testDeleteRole: Cleans up more than it should",2015-01-22,"https://incognitosoftware.atlassian.net/browse/AC-1690", , 
AC-1688,Major,Untriaged,"Cannot Delete Report Currently Being Viewed in WMC",2015-01-20,"https://incognitosoftware.atlassian.net/browse/AC-1688", , 
AC-1633,Major,Untriaged,"Child subnet groups do not appear in subnet group tree after parent SG is deleted",2015-01-12,"https://incognitosoftware.atlassian.net/browse/AC-1633", , 
AC-1625,Major,Untriaged,"ISMP startup script is not LSB compliant",2014-12-23,"https://incognitosoftware.atlassian.net/browse/AC-1625", , 
AC-1623,Major,Untriaged,"ISMP (and possibly others) are not available from the GA Yum repositories",2014-12-23,"https://incognitosoftware.atlassian.net/browse/AC-1623", , 
AC-1609,Major,Untriaged,"WMC defaults to some random host IP on fresh install",2014-12-18,"https://incognitosoftware.atlassian.net/browse/AC-1609", , 
AC-1608,Major,Untriaged,"Possible incompatibility with incognitoAxis-6-15.el6.x86_64.rpm",2014-12-17,"https://incognitosoftware.atlassian.net/browse/AC-1608", , 
AC-1589,Major,Untriaged,"WMC startup script is not LSB compliant",2014-12-11,"https://incognitosoftware.atlassian.net/browse/AC-1589", , 
AC-1584,Major,Untriaged,"IPMS/DMS Create Another Entity returns error",2014-12-10,"https://incognitosoftware.atlassian.net/browse/AC-1584", , 
AC-1550,Major,Untriaged,"Missing i18n labels in subnet audit search menu",2014-12-05,"https://incognitosoftware.atlassian.net/browse/AC-1550", , 
AC-1480,Major,Untriaged,"Service start script doesnt correctly locate Oracle DB drivers.",2014-11-26,"https://incognitosoftware.atlassian.net/browse/AC-1480", , 
AC-1475,Major,Untriaged,"The service can take several minutes to detect a failed DBMS connection",2014-11-25,"https://incognitosoftware.atlassian.net/browse/AC-1475", , 
AC-1335,Major,Untriaged,"Unable to navigating to Subdivided block from a seed plannign page ",2014-10-29,"https://incognitosoftware.atlassian.net/browse/AC-1335", , 
AC-1314,Major,Untriaged,"Cant select Person Entity",2014-10-23,"https://incognitosoftware.atlassian.net/browse/AC-1314", , 
AC-1313,Major,Untriaged,"Entity view for Organization type is always wonky",2014-10-23,"https://incognitosoftware.atlassian.net/browse/AC-1313", , 
AC-1170,Major,In Development,"*Issue with repeated Task execution possibly causing performance issues",2014-09-24,"https://incognitosoftware.atlassian.net/browse/AC-1170",https://incognito.my.salesforce.com/500C000000eHuKrIAK, 
AC-1123,Major,Untriaged,"Add location for modified configuration to start up scripts",2014-09-18,"https://incognitosoftware.atlassian.net/browse/AC-1123", ,P2
AC-1102,Major,Untriaged,"Should _NULL be used for blank string in ACIT data files",2014-09-12,"https://incognitosoftware.atlassian.net/browse/AC-1102", , 
AC-1076,Major,Untriaged,"Selecting SG when generating a chart from a Chart Definition",2014-09-04,"https://incognitosoftware.atlassian.net/browse/AC-1076", , 
AC-950,Major,In Development,"Disabled rules with highwatermark > 0 are not imported for some versions of DHCP services",2014-08-17,"https://incognitosoftware.atlassian.net/browse/AC-950", , 
AC-946,Major,Untriaged,"Improve datalayers mysql create/update performance [TIMEBOX]",2014-08-15,"https://incognitosoftware.atlassian.net/browse/AC-946", , 
AC-933,Major,Untriaged,"CNAME  Resource records with the same name are allowed in NC",2014-08-11,"https://incognitosoftware.atlassian.net/browse/AC-933", , 
AC-871,Major,Untriaged,"Updated NDP Device Popup so that its useful clear and has a purpose",2014-07-30,"https://incognitosoftware.atlassian.net/browse/AC-871", , 
AC-865,Major,Untriaged,"some required fields not always returned for device objects",2014-07-23,"https://incognitosoftware.atlassian.net/browse/AC-865", , 
AC-864,Major,Untriaged,"aclId missing from soap response",2014-07-23,"https://incognitosoftware.atlassian.net/browse/AC-864", , 
AC-815,Major,Untriaged,"[Spike]Follow-up with IPv6 Lab in Slovenia and identify why virtualized servers not being discovered",2014-07-11,"https://incognitosoftware.atlassian.net/browse/AC-815", , 
AC-807,Major,Untriaged,"WMC: reclaim node API should be used for node reclaim instead of setNodeType",2014-07-08,"https://incognitosoftware.atlassian.net/browse/AC-807", , 
AC-801,Major,Untriaged,"[Sunrise] Understanding Performance issues related to NC hostnames",2014-07-07,"https://incognitosoftware.atlassian.net/browse/AC-801", , 
AC-800,Major,Untriaged,"Incorporate information about third-party products into an About dialog",2014-07-04,"https://incognitosoftware.atlassian.net/browse/AC-800", , 
AC-757,Major,Untriaged,"WMC Issue on Report Definition page Scheduling options",2014-06-26,"https://incognitosoftware.atlassian.net/browse/AC-757", , 
AC-724,Major,Untriaged,"Field input on Entities page are shifted if Organization is selected as Type",2014-06-17,"https://incognitosoftware.atlassian.net/browse/AC-724", , 
AC-643,Major,Untriaged,"NDP: IP Address not linked with Interface for device.",2014-05-29,"https://incognitosoftware.atlassian.net/browse/AC-643", , 
AC-600,Major,Untriaged,"Nodes and Devices Search page cannot navigate past ~2000 items",2014-05-21,"https://incognitosoftware.atlassian.net/browse/AC-600", , 
AC-590,Major,Untriaged,"Disabled Rules with leases are not imported into AC for IPC 6.3.7.2",2014-05-21,"https://incognitosoftware.atlassian.net/browse/AC-590", , 
AC-585,Major,Untriaged,"Owner entity is displayed in DHCP Service field when selected in Create Subnet page",2014-05-14,"https://incognitosoftware.atlassian.net/browse/AC-585", , 
AC-584,Major,Untriaged,"Error during subnet creation when DHCP is selected from search page.",2014-05-14,"https://incognitosoftware.atlassian.net/browse/AC-584", , 
AC-580,Major,Untriaged,"Select DHCP in Create DHCP page list non-DHCP service components",2014-05-13,"https://incognitosoftware.atlassian.net/browse/AC-580", , 
AC-577,Major,Untriaged,"Select None for DHCP2 does not work properly in Create DHCP page",2014-05-13,"https://incognitosoftware.atlassian.net/browse/AC-577", , 
AC-567,Major,Untriaged,"Delete confirmation prompted when no entities are selected",2014-05-07,"https://incognitosoftware.atlassian.net/browse/AC-567", , 
AC-475,Major,Untriaged,"When a table page is left too long clicking next (>) will cause an exception",2014-05-01,"https://incognitosoftware.atlassian.net/browse/AC-475", , 
AC-474,Major,Untriaged,"Tasks with more then 23 steps (spans 2 pages) each refresh goes back to the first page forcing the user to have to go to the next page to see the step progress. This is annoying",2014-04-30,"https://incognitosoftware.atlassian.net/browse/AC-474", , 
AC-338,Major,Untriaged,"QA: Improve Manual Test to focus on flows most important to our customers",2014-03-06,"https://incognitosoftware.atlassian.net/browse/AC-338", , 
AC-336,Major,Untriaged,"QA:Automate upgrades tests for all DB versions",2014-03-06,"https://incognitosoftware.atlassian.net/browse/AC-336", , 
AC-333,Major,Untriaged,"Importing data set with  ENCODING = SQL_ASCII to db with ENCODING = UTF8 will end up loosing some of the data",2014-03-05,"https://incognitosoftware.atlassian.net/browse/AC-333", , 
AC-322,Major,Untriaged,"The BCC 5 services cannot have the registration information shown on service panel",2014-02-27,"https://incognitosoftware.atlassian.net/browse/AC-322", , 
UMS-54,Minor,Untriaged,"WMC: component services node is still displayed even when user doesnt have the permission",2016-03-09,"https://incognitosoftware.atlassian.net/browse/UMS-54",https://incognito.my.salesforce.com/500C000000zNglCIAS, 
UMS-26,Minor,Untriaged,"During start-up if no database connection is available umsd will not start instead of continue to try",2014-11-13,"https://incognitosoftware.atlassian.net/browse/UMS-26", , 
UMS-21,Minor,Untriaged,"Application of key results in single occurrence of Serial Number Given Does not match",2014-08-29,"https://incognitosoftware.atlassian.net/browse/UMS-21", , 
SDM-285,Minor,Untriaged,"/serviceconfiguration API should return array wrapped inside object",2016-02-10,"https://incognitosoftware.atlassian.net/browse/SDM-285", , 
NC-49,Minor,Untriaged,"NC Puppet on Debian 7.7",2014-11-27,"https://incognitosoftware.atlassian.net/browse/NC-49", , 
AC-3086,Minor,Untriaged,"* WMC: There is no message shown when regenerating a report by request another",2016-01-14,"https://incognitosoftware.atlassian.net/browse/AC-3086", , 
AC-3051,Minor,Untriaged,"RPM assumes default data directory",2015-12-09,"https://incognitosoftware.atlassian.net/browse/AC-3051", , 
AC-2675,Minor,Untriaged,"IPMS throws exception with wrong error code when retrieving an DHCPProblemInstance which doesnt exist",2015-08-10,"https://incognitosoftware.atlassian.net/browse/AC-2675", , 
AC-2489,Minor,Untriaged,"Entering keys and registering services in UMS on a machine whose hostname has recently been changed will result in ERROR: Unknown error 2116",2015-06-30,"https://incognitosoftware.atlassian.net/browse/AC-2489", , 
AC-2476,Minor,Untriaged,"Deleting a Service Access Entry which no longer exists throws exception with wrong error code",2015-06-26,"https://incognitosoftware.atlassian.net/browse/AC-2476", , 
AC-2198,Minor,Untriaged,"WMC: Cannot login to WMC if the IPMS is registered but not running",2015-05-11,"https://incognitosoftware.atlassian.net/browse/AC-2198", , 
AC-2136,Minor,Untriaged,"Creating Usage allows for input larger than number of nodes in block",2015-04-28,"https://incognitosoftware.atlassian.net/browse/AC-2136", , 
AC-1951,Minor,In Development,"ISMP installation instructions for Debian are not complete or fully accurate",2015-03-12,"https://incognitosoftware.atlassian.net/browse/AC-1951", , 
AC-1635,Minor,Open,"[BHN] Cascade deletion of devices involves convoluted security",2015-01-13,"https://incognitosoftware.atlassian.net/browse/AC-1635",https://incognito.my.salesforce.com/500C000000ig0FzIAI, 
AC-1627,Minor,Untriaged,"Creating Two Duplicate Resource Records Sometimes Does Not Report An Error",2015-01-02,"https://incognitosoftware.atlassian.net/browse/AC-1627", , 
AC-1621,Minor,Untriaged,"Device Request Rule page doesnt revert to defaults when ANY SST is used",2014-12-22,"https://incognitosoftware.atlassian.net/browse/AC-1621", , 
AC-1499,Minor,Untriaged,"Update Nodes dialogue sets the same hostname to nodes even if Single Hostname checkbox is not active",2014-11-30,"https://incognitosoftware.atlassian.net/browse/AC-1499", , 
AC-1487,Minor,Untriaged,"WMC failure when there is an NDP that is stopped and one that is running",2014-11-28,"https://incognitosoftware.atlassian.net/browse/AC-1487", , 
AC-1411,Minor,Untriaged,"No package dependancy on java (direct or indirect)",2014-11-17,"https://incognitosoftware.atlassian.net/browse/AC-1411", , 
AC-1220,Minor,Untriaged,"ACNC installation script doesnt recognize postgresql-8.4 on Centos 6.5",2014-10-10,"https://incognitosoftware.atlassian.net/browse/AC-1220", , 
AC-811,Minor,Untriaged,"DHCP discovery task: Subnet not updated properly after Subnet rule move",2014-07-09,"https://incognitosoftware.atlassian.net/browse/AC-811", , 
AC-714,Minor,Untriaged,"Applies to Device Discovery: Generic searches will return less data if requested result size is one more than the batch size",2014-06-12,"https://incognitosoftware.atlassian.net/browse/AC-714", , 
AC-358,Minor,Untriaged,"IE10&11 screen GUI Subnet look different then on FireFox and Chrome",2014-03-10,"https://incognitosoftware.atlassian.net/browse/AC-358", ,P4
AC-309,Minor,Untriaged,"Alert showing the unignored problems got a wrong default",2014-02-26,"https://incognitosoftware.atlassian.net/browse/AC-309", , 
AC-264,Minor,Untriaged,"Support ipv4 and ipv6 interface drop downs for SNMP POLLING INTERFACE config params",2014-02-21,"https://incognitosoftware.atlassian.net/browse/AC-264", , 
AC-258,Minor,Untriaged,"In Select Domain page radiobutton Dont Search by Attribute can not be deselected ",2014-02-21,"https://incognitosoftware.atlassian.net/browse/AC-258", ,P3
AC-251,Minor,Untriaged,"During scanning in Discovery Subnet one of the top button Discovery Subnet loss focus when the similar one low button Discovery Subnet does not lost focus",2014-02-20,"https://incognitosoftware.atlassian.net/browse/AC-251", ,P3
AC-892,Trivial,Untriaged,"All install script OS version issue",2014-08-05,"https://incognitosoftware.atlassian.net/browse/AC-892", ,P3
