ACS-3664,Critical,Untriaged,"ACS is susceptible to HTML injection",2016-04-27,"https://incognitosoftware.atlassian.net/browse/ACS-3664", ,P2
ACS-3527,Critical,Open,"numeric data composers decimal field is not marked as mandatory but cannot be left blank",2016-04-14,"https://incognitosoftware.atlassian.net/browse/ACS-3527", ,P3
ACS-3509,Critical,In Development,"HTTP errors returned by service when user attempts action without appropriate permissions are inconsistent (i.e. not 403)",2016-04-13,"https://incognitosoftware.atlassian.net/browse/ACS-3509", ,P3
ACS-3494,Critical,Open,"Unable to view device information on newly created device",2016-04-12,"https://incognitosoftware.atlassian.net/browse/ACS-3494", ,P3
ACS-3385,Critical,Untriaged,"Can delete failed device operations from devices > CSR view",2016-04-05,"https://incognitosoftware.atlassian.net/browse/ACS-3385", ,P1
ACS-3030,Critical,In Development,"ACS 2.0.3 to 3.1.1GA failed with customers mysql database",2016-02-17,"https://incognitosoftware.atlassian.net/browse/ACS-3030", ,P2
ACS-2847,Critical,Untriaged,"acs-cloud unresponsive",2015-10-28,"https://incognitosoftware.atlassian.net/browse/ACS-2847", , 
ACS-2430,Critical,Open,"ACS Service restart fails",2015-06-11,"https://incognitosoftware.atlassian.net/browse/ACS-2430", ,P2
ACS-3859,Major,Untriaged,"Viewing Campaigns associated task shows infinite loader",2016-06-06,"https://incognitosoftware.atlassian.net/browse/ACS-3859", ,P3
ACS-3858,Major,Open,"ConnectionRequest in Multi-CWMP environment failing due to cached IP not being updated",2016-06-06,"https://incognitosoftware.atlassian.net/browse/ACS-3858", ,P2
ACS-3855,Major,Untriaged,"Firmware updates logo is off ",2016-06-02,"https://incognitosoftware.atlassian.net/browse/ACS-3855", , 
ACS-3854,Major,Untriaged,"Firmware update label display in wrong style  ",2016-06-02,"https://incognitosoftware.atlassian.net/browse/ACS-3854", , 
ACS-3853,Major,Open,"Various issues when adding/removing associated objects on device group",2016-06-02,"https://incognitosoftware.atlassian.net/browse/ACS-3853", ,P2
ACS-3852,Major,Untriaged,"Loader hides before next page shows up",2016-06-02,"https://incognitosoftware.atlassian.net/browse/ACS-3852", ,P4
ACS-3845,Major,Untriaged,"Scheduled Report Details View does not contain all fields required",2016-05-31,"https://incognitosoftware.atlassian.net/browse/ACS-3845", ,P3
ACS-3843,Major,Untriaged,"Scheduled Time is not used as tiles name in Report Schedules GTT",2016-05-31,"https://incognitosoftware.atlassian.net/browse/ACS-3843", ,P3
ACS-3842,Major,Untriaged,"Delete button is missing in Report Instances GTT view",2016-05-31,"https://incognitosoftware.atlassian.net/browse/ACS-3842", ,P3
ACS-3841,Major,Untriaged,"Adding Report sends PUT instead of POST request",2016-05-31,"https://incognitosoftware.atlassian.net/browse/ACS-3841", ,P3
ACS-3830,Major,Untriaged,"GUI does not accumulate newly added associated items",2016-05-27,"https://incognitosoftware.atlassian.net/browse/ACS-3830", ,P3
ACS-3829,Major,In Development,"Breadcrumbs keep growing",2016-05-27,"https://incognitosoftware.atlassian.net/browse/ACS-3829", ,P3
ACS-3828,Major,Untriaged,"Action bar does not update after initializing download report",2016-05-27,"https://incognitosoftware.atlassian.net/browse/ACS-3828", ,P4
ACS-3827,Major,Untriaged,"GUI forgets Trigger Parameter for new diagnostic",2016-05-27,"https://incognitosoftware.atlassian.net/browse/ACS-3827", , 
ACS-3826,Major,In Development,"Updating a newly created diagnostic would create duplicated entry in REST request",2016-05-27,"https://incognitosoftware.atlassian.net/browse/ACS-3826", ,P2
ACS-3824,Major,Untriaged,"[Service] Device Workbench",2016-05-26,"https://incognitosoftware.atlassian.net/browse/ACS-3824", , 
ACS-3821,Major,Untriaged,"[GUI] deleting device models sometimes fails because of incorrect REST call",2016-05-25,"https://incognitosoftware.atlassian.net/browse/ACS-3821", , 
ACS-3820,Major,Untriaged,"[Requirements] Operation (incl Diagnostics) flow & display Improvements",2016-05-25,"https://incognitosoftware.atlassian.net/browse/ACS-3820", , 
ACS-3819,Major,Untriaged,"[GUI] User can no longer select multiple device models at the same time",2016-05-25,"https://incognitosoftware.atlassian.net/browse/ACS-3819", ,P3
ACS-3817,Major,Untriaged,"Creating a service class with certain invalid input for priority produces various errors",2016-05-25,"https://incognitosoftware.atlassian.net/browse/ACS-3817", , 
ACS-3814,Major,Untriaged,"When error message is very long on action bar the x button is no longer displayed to dismiss the message",2016-05-24,"https://incognitosoftware.atlassian.net/browse/ACS-3814", ,P3
ACS-3813,Major,Untriaged,"Attempting to change service configuration parameters without any service control permissions results in NullPointerException",2016-05-24,"https://incognitosoftware.atlassian.net/browse/ACS-3813", , 
ACS-3812,Major,Untriaged,"TR69_INFORM_EVENT and TR69_SESSION_EVENT websocket time should be in UTC",2016-05-24,"https://incognitosoftware.atlassian.net/browse/ACS-3812", ,P3
ACS-3810,Major,Untriaged,"Cloning device model without permission gives misleading error message",2016-05-24,"https://incognitosoftware.atlassian.net/browse/ACS-3810", ,P4
ACS-3807,Major,Untriaged,"Monitored Parameters not working when device group is criteria based",2016-05-20,"https://incognitosoftware.atlassian.net/browse/ACS-3807", , 
ACS-3806,Major,Untriaged,"Associated Service Classes view select mode button disappears",2016-05-20,"https://incognitosoftware.atlassian.net/browse/ACS-3806", ,P3
ACS-3803,Major,Untriaged,"Already archived firmware update still has archive option",2016-05-19,"https://incognitosoftware.atlassian.net/browse/ACS-3803", ,P3
ACS-3802,Major,Untriaged,"Tiles counts dont update in Firmware Management view",2016-05-19,"https://incognitosoftware.atlassian.net/browse/ACS-3802", ,P3
ACS-3801,Major,Untriaged,"Campaigns schedule shouldnt me modifiable after it has run",2016-05-19,"https://incognitosoftware.atlassian.net/browse/ACS-3801", ,P3
ACS-3799,Major,Untriaged,"Entering large number for After __ occurrence in schedule form breaks GUI",2016-05-19,"https://incognitosoftware.atlassian.net/browse/ACS-3799", ,P3
ACS-3798,Major,Open,"Monitored Parameters do not take effect until CWMP service restart",2016-05-19,"https://incognitosoftware.atlassian.net/browse/ACS-3798", ,P2
ACS-3797,Major,Untriaged,"Opening help page from main IES view sends user back to home",2016-05-19,"https://incognitosoftware.atlassian.net/browse/ACS-3797", ,P4
ACS-3796,Major,Untriaged,"Wifi Survey tile creation has options that have no effect",2016-05-19,"https://incognitosoftware.atlassian.net/browse/ACS-3796", ,P3
ACS-3793,Major,Untriaged,"Creating a device sends a list of all device models in the API call",2016-05-17,"https://incognitosoftware.atlassian.net/browse/ACS-3793", ,P3
ACS-3792,Major,Open,"Duplicate error with unnecessary stacktrace",2016-05-17,"https://incognitosoftware.atlassian.net/browse/ACS-3792", ,P3
ACS-3791,Major,Open,"CWMP Log file warning spam",2016-05-17,"https://incognitosoftware.atlassian.net/browse/ACS-3791", ,P2
ACS-3790,Major,Open,"Stacktrace in ACS Logs",2016-05-17,"https://incognitosoftware.atlassian.net/browse/ACS-3790", ,P3
ACS-3788,Major,Untriaged,"GUI does not pass sanity with IE or Firefox",2016-05-17,"https://incognitosoftware.atlassian.net/browse/ACS-3788", ,P2
ACS-3787,Major,Untriaged,"Unusable log line in ACS logs",2016-05-17,"https://incognitosoftware.atlassian.net/browse/ACS-3787", ,P2
ACS-3786,Major,Open,"Message spam on CWMP Logs in L2",2016-05-17,"https://incognitosoftware.atlassian.net/browse/ACS-3786", ,P2
ACS-3785,Major,Open,"Test configuration parameters are exposed",2016-05-17,"https://incognitosoftware.atlassian.net/browse/ACS-3785", ,P2
ACS-3784,Major,Open,"Unusable warning message",2016-05-17,"https://incognitosoftware.atlassian.net/browse/ACS-3784", ,P2
ACS-3783,Major,Open,"Animation on next page load in device screen becomes very annoying",2016-05-17,"https://incognitosoftware.atlassian.net/browse/ACS-3783", ,P2
ACS-3782,Major,Open,"Search expression exception in Device Listing ",2016-05-17,"https://incognitosoftware.atlassian.net/browse/ACS-3782", ,P2
ACS-3781,Major,Untriaged,"Missing IES dependency for Javascript API",2016-05-16,"https://incognitosoftware.atlassian.net/browse/ACS-3781", ,P1
ACS-3779,Major,Untriaged,"Infinite spinning wheel when trying to view Custom Value Generators for device model",2016-05-16,"https://incognitosoftware.atlassian.net/browse/ACS-3779", ,P3
ACS-3777,Major,Open,"Green bar impacts user flows",2016-05-16,"https://incognitosoftware.atlassian.net/browse/ACS-3777", ,P2
ACS-3776,Major,Open,"Custom Value Generator: No way to change script",2016-05-16,"https://incognitosoftware.atlassian.net/browse/ACS-3776", ,P3
ACS-3775,Major,Untriaged,"ACSJavascript API forgets ACS address",2016-05-16,"https://incognitosoftware.atlassian.net/browse/ACS-3775", ,P2
ACS-3772,Major,Untriaged,"Takes over 40 seconds to display add parameters view for service class",2016-05-13,"https://incognitosoftware.atlassian.net/browse/ACS-3772", ,P2
ACS-3771,Major,Untriaged,"Attempting to create a large number of devices on Oracle fails",2016-05-12,"https://incognitosoftware.atlassian.net/browse/ACS-3771", ,P2
ACS-3770,Major,Untriaged,"update java dependency for cwmp to java 7",2016-05-12,"https://incognitosoftware.atlassian.net/browse/ACS-3770", , 
ACS-3761,Major,Untriaged,"Upgrade from ACS 2.0 to 3.3 has issues with search strings due to syntax / search format changed",2016-05-10,"https://incognitosoftware.atlassian.net/browse/ACS-3761", ,P3
ACS-3760,Major,Untriaged,"Executing report displays message Creates a new record for the current object.",2016-05-10,"https://incognitosoftware.atlassian.net/browse/ACS-3760", ,P4
ACS-3759,Major,Untriaged,"Unable to import/clone/create many device models on ACS with Oracle",2016-05-10,"https://incognitosoftware.atlassian.net/browse/ACS-3759", ,P3
ACS-3758,Major,Untriaged,"When there are over 100 device models scrolling to the bottom results in error message toIndex = 212",2016-05-10,"https://incognitosoftware.atlassian.net/browse/ACS-3758", , 
ACS-3756,Major,Open,"[Service] User can change password",2016-05-10,"https://incognitosoftware.atlassian.net/browse/ACS-3756", ,P2
ACS-3753,Major,Open,"ACS CLI inconsistent handling of table objects",2016-05-10,"https://incognitosoftware.atlassian.net/browse/ACS-3753", ,P3
ACS-3752,Major,Open,"Adding a new report with an incorrect XML file still creates the report type",2016-05-09,"https://incognitosoftware.atlassian.net/browse/ACS-3752", ,P3
ACS-3751,Major,Untriaged,"ACS GUI performance suffers after loading a lot of search items",2016-05-09,"https://incognitosoftware.atlassian.net/browse/ACS-3751", ,P3
ACS-3749,Major,Untriaged,"[Design] Import dialog: Support overwrite",2016-05-09,"https://incognitosoftware.atlassian.net/browse/ACS-3749", , 
ACS-3748,Major,Untriaged,"[Design] User can change password",2016-05-09,"https://incognitosoftware.atlassian.net/browse/ACS-3748", , 
ACS-3747,Major,Untriaged,"ACSCLI to improve help option ",2016-05-09,"https://incognitosoftware.atlassian.net/browse/ACS-3747", ,P3
ACS-3746,Major,Open,"[Service] Implementation - Port forwarding",2016-05-09,"https://incognitosoftware.atlassian.net/browse/ACS-3746", , 
ACS-3745,Major,Open,"[Design] Design - Port forwarding",2016-05-09,"https://incognitosoftware.atlassian.net/browse/ACS-3745", , 
ACS-3743,Major,Open,"[Service] Design - script Instance creation issues",2016-05-09,"https://incognitosoftware.atlassian.net/browse/ACS-3743", , 
ACS-3742,Major,Open,"[Service] Implementation script Instance creation issues",2016-05-09,"https://incognitosoftware.atlassian.net/browse/ACS-3742", , 
ACS-3741,Major,Open,"[Design] Device Workbench",2016-05-09,"https://incognitosoftware.atlassian.net/browse/ACS-3741", , 
ACS-3740,Major,Open,"[Design] Operation (incl Diagnostics) flow & display Improvements",2016-05-09,"https://incognitosoftware.atlassian.net/browse/ACS-3740", ,P2
ACS-3739,Major,Open,"[Service] Implementation(BE) - Historical values for configurable values",2016-05-09,"https://incognitosoftware.atlassian.net/browse/ACS-3739", , 
ACS-3738,Major,Open,"[Service] Design - Historical values for configurable values",2016-05-09,"https://incognitosoftware.atlassian.net/browse/ACS-3738", , 
ACS-3737,Major,Open,"Implementation for Include setting of parameters without force",2016-05-09,"https://incognitosoftware.atlassian.net/browse/ACS-3737", , 
ACS-3736,Major,Open,"Design for Include setting of parameters without force",2016-05-09,"https://incognitosoftware.atlassian.net/browse/ACS-3736", , 
ACS-3735,Major,Open,"Identify user requests and components that set parameters without creating provision parameter ",2016-05-09,"https://incognitosoftware.atlassian.net/browse/ACS-3735", , 
ACS-3734,Major,Open,"GUI is not displaying all campaign search results to the user",2016-05-09,"https://incognitosoftware.atlassian.net/browse/ACS-3734", ,P2
ACS-3732,Major,Open,"Error message misleading when import device model with IES down ",2016-05-09,"https://incognitosoftware.atlassian.net/browse/ACS-3732", ,P3
ACS-3717,Major,In Development,"Custom search terms",2016-05-05,"https://incognitosoftware.atlassian.net/browse/ACS-3717", ,P2
ACS-3715,Major,Untriaged,"Device search term sync processes tables it doesnt need to",2016-05-04,"https://incognitosoftware.atlassian.net/browse/ACS-3715", , 
ACS-3713,Major,Open,"Device operations schedule changes to Next Contact after window reached",2016-05-04,"https://incognitosoftware.atlassian.net/browse/ACS-3713", ,P2
ACS-3712,Major,Open,"Internal Server Error when attempting to send Connection Request after session timeout",2016-05-04,"https://incognitosoftware.atlassian.net/browse/ACS-3712", ,P3
ACS-3711,Major,Open,"Issue with running many campaigns",2016-05-03,"https://incognitosoftware.atlassian.net/browse/ACS-3711", ,P2
ACS-3709,Major,Open,"Setting value for a provisioned parameter twice would get error",2016-05-03,"https://incognitosoftware.atlassian.net/browse/ACS-3709", ,P3
ACS-3708,Major,Untriaged,"CWMPs umscorbaloc parameter is being overwritten by *:9995",2016-05-03,"https://incognitosoftware.atlassian.net/browse/ACS-3708", , 
ACS-3706,Major,Open,"Device group name is not updated until refresh",2016-05-03,"https://incognitosoftware.atlassian.net/browse/ACS-3706", ,P3
ACS-3703,Major,Open,"Manage Deice Model Dashboard button visible to user without permission",2016-05-03,"https://incognitosoftware.atlassian.net/browse/ACS-3703", ,P3
ACS-3701,Major,Untriaged,"Breadcrumb incorrect after refreshing in CPE Service Configuration Details",2016-05-03,"https://incognitosoftware.atlassian.net/browse/ACS-3701", , 
ACS-3700,Major,Open,"Pictures persisted after setting device model to Not Set",2016-05-03,"https://incognitosoftware.atlassian.net/browse/ACS-3700", ,P3
ACS-3699,Major,Untriaged,"Dialog pops up after a Perform Diagnostic REST call is sent",2016-05-03,"https://incognitosoftware.atlassian.net/browse/ACS-3699", , 
ACS-3698,Major,Open,"Ambiguous behaviour when editing Campaigns schedule",2016-05-03,"https://incognitosoftware.atlassian.net/browse/ACS-3698", ,P3
ACS-3697,Major,Open,"Number in Report Tile is not updated",2016-05-02,"https://incognitosoftware.atlassian.net/browse/ACS-3697", ,P3
ACS-3696,Major,Open,"Service Classes GTT views Confirm button present even nothing changed",2016-05-02,"https://incognitosoftware.atlassian.net/browse/ACS-3696", ,P3
ACS-3695,Major,Open,"Issue with specifying upload path when uploading Firmware recipe steps",2016-05-02,"https://incognitosoftware.atlassian.net/browse/ACS-3695", ,P3
ACS-3694,Major,Untriaged,"Cannot go back after removing firmware recipe step",2016-05-02,"https://incognitosoftware.atlassian.net/browse/ACS-3694", , 
ACS-3693,Major,Open,"Cannot abort firmware recipe step upload",2016-05-02,"https://incognitosoftware.atlassian.net/browse/ACS-3693", ,P3
ACS-3692,Major,Open,"Cannot upload firmware recipe steps to second server that service returned",2016-05-02,"https://incognitosoftware.atlassian.net/browse/ACS-3692", ,P2
ACS-3689,Major,Open,"[GUI] Service class does not display correctly on import",2016-05-02,"https://incognitosoftware.atlassian.net/browse/ACS-3689", ,P3
ACS-3688,Major,Untriaged,"Dashboard Failed Operations tile is not showing number of active failed operations",2016-05-02,"https://incognitosoftware.atlassian.net/browse/ACS-3688", , 
ACS-3687,Major,Open,"Default sort oder in devices list incorrect",2016-04-29,"https://incognitosoftware.atlassian.net/browse/ACS-3687", ,P3
ACS-3685,Major,Open,"Wrong count when deleting devices",2016-04-29,"https://incognitosoftware.atlassian.net/browse/ACS-3685", ,P2
ACS-3683,Major,Open,"Cannot delete all devices matching a filter",2016-04-29,"https://incognitosoftware.atlassian.net/browse/ACS-3683", ,P1
ACS-3680,Major,Open,"Cannot create Campaign that runs on many devices",2016-04-29,"https://incognitosoftware.atlassian.net/browse/ACS-3680", ,P3
ACS-3674,Major,Open,"Create Device Model page is improperly named",2016-04-28,"https://incognitosoftware.atlassian.net/browse/ACS-3674", ,P4
ACS-3672,Major,Open,"[GUI] PUT request sent when adding new report definition ",2016-04-28,"https://incognitosoftware.atlassian.net/browse/ACS-3672", ,P3
ACS-3670,Major,Open,"Devicegroup Association Change sometimes generates improperly formatted description",2016-04-27,"https://incognitosoftware.atlassian.net/browse/ACS-3670", ,P3
ACS-3669,Major,Open,"Report Details says a manually executed report was created by System",2016-04-27,"https://incognitosoftware.atlassian.net/browse/ACS-3669", ,P4
ACS-3668,Major,Open,"[GUI] Perform Actions on device without a device model results in infinite spinning wheel",2016-04-27,"https://incognitosoftware.atlassian.net/browse/ACS-3668", ,P2
ACS-3663,Major,Open,"UI - Manufacturer missing from page titles.",2016-04-26,"https://incognitosoftware.atlassian.net/browse/ACS-3663", ,P2
ACS-3661,Major,Open,"Last inform time last session end time are incorrect in session info after connection request",2016-04-26,"https://incognitosoftware.atlassian.net/browse/ACS-3661", ,P3
ACS-3659,Major,Open,"Hub does not handle session timeout",2016-04-26,"https://incognitosoftware.atlassian.net/browse/ACS-3659", ,P2
ACS-3658,Major,Open,"Performing Restore on device returns an empty Uris[] ",2016-04-26,"https://incognitosoftware.atlassian.net/browse/ACS-3658", ,P3
ACS-3657,Major,Untriaged,"Receive error messages Index: 0 Size:0 when clicking on Device tile of undiscovered device",2016-04-26,"https://incognitosoftware.atlassian.net/browse/ACS-3657", ,P3
ACS-3656,Major,Open,"[GUI] Performing Connection Request with a device not known to CWMP does not trigger device widget to turn red",2016-04-26,"https://incognitosoftware.atlassian.net/browse/ACS-3656", ,P2
ACS-3655,Major,Untriaged,"[GUI] First time getting a read time out error when trying to initiate a connection request results in orange device widget",2016-04-26,"https://incognitosoftware.atlassian.net/browse/ACS-3655", ,P3
ACS-3648,Major,Open,"Campaign that has upload task along with others will hang as pending",2016-04-25,"https://incognitosoftware.atlassian.net/browse/ACS-3648", ,P2
ACS-3647,Major,Open,"[GUI] Campaigns search returns results including archived",2016-04-25,"https://incognitosoftware.atlassian.net/browse/ACS-3647", ,P2
ACS-3643,Major,Open,"Supported search parameter indexing takes a long time with many devices.",2016-04-25,"https://incognitosoftware.atlassian.net/browse/ACS-3643", ,P3
ACS-3640,Major,Open,"Attempting to examine a service configuration widget through dashboard fails",2016-04-23,"https://incognitosoftware.atlassian.net/browse/ACS-3640", ,P2
ACS-3639,Major,Open,"[GUI] Attempting to update network interfaces on Device Model will instead create new network interface",2016-04-23,"https://incognitosoftware.atlassian.net/browse/ACS-3639", ,P2
ACS-3638,Major,Open,"script definition history calendar does not load on first call",2016-04-23,"https://incognitosoftware.atlassian.net/browse/ACS-3638", ,P3
ACS-3635,Major,Open,"[GUI] apply device model after upgrade field for firmware management recipe does not show current device model",2016-04-23,"https://incognitosoftware.atlassian.net/browse/ACS-3635", ,P3
ACS-3633,Major,Open,"unknown schedule type when scheduling report",2016-04-23,"https://incognitosoftware.atlassian.net/browse/ACS-3633", ,P3
ACS-3632,Major,Open,"[GUI] caching issue with deployment unit",2016-04-22,"https://incognitosoftware.atlassian.net/browse/ACS-3632", ,P3
ACS-3631,Major,Open,"Update / Delete of deployment units does nothing",2016-04-22,"https://incognitosoftware.atlassian.net/browse/ACS-3631", ,P2
ACS-3630,Major,Open,"[GUI] Operation with type CHANGEDUSTATE displays nothing for type on gui",2016-04-22,"https://incognitosoftware.atlassian.net/browse/ACS-3630", ,P3
ACS-3629,Major,Open,"[GUI] Device model count only increases by one when importing multiple",2016-04-22,"https://incognitosoftware.atlassian.net/browse/ACS-3629", ,P3
ACS-3628,Major,Open,"[GUI] Download device says Url is mandatory but able to execute without it",2016-04-22,"https://incognitosoftware.atlassian.net/browse/ACS-3628", ,P3
ACS-3627,Major,Open,"[GUI] Resync device has red status bar instead of green",2016-04-22,"https://incognitosoftware.atlassian.net/browse/ACS-3627", ,P2
ACS-3626,Major,Open,"Multiple delete on device model returns service error  409 Conflict",2016-04-22,"https://incognitosoftware.atlassian.net/browse/ACS-3626", ,P3
ACS-3625,Major,Open,"[GUI] Viewing device summary after being on create device page causes header errors",2016-04-22,"https://incognitosoftware.atlassian.net/browse/ACS-3625", ,P3
ACS-3624,Major,Open,"devices search with multiple wildcards throws 500 internal server error",2016-04-22,"https://incognitosoftware.atlassian.net/browse/ACS-3624", ,P2
ACS-3605,Major,Open,"[GUI] active operation tile shows wrong cached number",2016-04-21,"https://incognitosoftware.atlassian.net/browse/ACS-3605", ,P3
ACS-3602,Major,Untriaged,"[GUI] updating name of network interface would create a new one",2016-04-21,"https://incognitosoftware.atlassian.net/browse/ACS-3602", , 
ACS-3601,Major,Open,"[GUI] Tooltip persists if hovering over campaign completion % when it changes",2016-04-21,"https://incognitosoftware.atlassian.net/browse/ACS-3601", ,P4
ACS-3594,Major,Open,"CSR user without device group permission can see Device Group widget",2016-04-20,"https://incognitosoftware.atlassian.net/browse/ACS-3594", ,P3
ACS-3590,Major,Open,"After terminating an in progress campaign Summary shows all 3 device operation states",2016-04-20,"https://incognitosoftware.atlassian.net/browse/ACS-3590", ,P3
ACS-3589,Major,Open,"Scheduled campaigns hang as Pending when window starts",2016-04-20,"https://incognitosoftware.atlassian.net/browse/ACS-3589", ,P2
ACS-3583,Major,Open,"Supported Parameters CRUD does not require appropriate permissions",2016-04-19,"https://incognitosoftware.atlassian.net/browse/ACS-3583", ,P3
ACS-3572,Major,Untriaged,"Download report options are difficult to navigate",2016-04-18,"https://incognitosoftware.atlassian.net/browse/ACS-3572", , 
ACS-3571,Major,Open,"Updating firmware update without Update BulkOperation permission succeeds",2016-04-18,"https://incognitosoftware.atlassian.net/browse/ACS-3571", ,P2
ACS-3568,Major,Open,"Service does not handle device model description > 1024 characters",2016-04-18,"https://incognitosoftware.atlassian.net/browse/ACS-3568", ,P3
ACS-3565,Major,Open,"Device Model > Device-Log params tree view is cached when click back without confirm",2016-04-18,"https://incognitosoftware.atlassian.net/browse/ACS-3565", ,P3
ACS-3564,Major,Open,"Device Model > Device Log Params Tree states issue",2016-04-18,"https://incognitosoftware.atlassian.net/browse/ACS-3564", ,P3
ACS-3560,Major,Open,"Add button for device models trigger parameter shows change when theres no parameter",2016-04-16,"https://incognitosoftware.atlassian.net/browse/ACS-3560", ,P4
ACS-3557,Major,Open,"performing restore uses red / error message",2016-04-16,"https://incognitosoftware.atlassian.net/browse/ACS-3557", ,P4
ACS-3551,Major,Open,"Devices active operation filter is returning wrong result",2016-04-16,"https://incognitosoftware.atlassian.net/browse/ACS-3551", ,P2
ACS-3548,Major,Open,"Old values might be saved when the user opens two tabs and switches in between",2016-04-15,"https://incognitosoftware.atlassian.net/browse/ACS-3548", ,P3
ACS-3541,Major,Open,"Orange Operations tile",2016-04-15,"https://incognitosoftware.atlassian.net/browse/ACS-3541", ,P2
ACS-3540,Major,Open,"cwmp cannot be started up first to a new rabbitmq server",2016-04-15,"https://incognitosoftware.atlassian.net/browse/ACS-3540", ,P3
ACS-3539,Major,Open,"Hide the hub item device models if users do not have permission to manage them.",2016-04-15,"https://incognitosoftware.atlassian.net/browse/ACS-3539", ,P3
ACS-3538,Major,Open,"Null pointer exception in cwmp heartbeat/ device black list",2016-04-15,"https://incognitosoftware.atlassian.net/browse/ACS-3538", ,P2
ACS-3528,Major,Open,"no loading icon while importing device models from remote repository",2016-04-14,"https://incognitosoftware.atlassian.net/browse/ACS-3528", ,P3
ACS-3525,Major,Open,"Report scheduling errors by service",2016-04-14,"https://incognitosoftware.atlassian.net/browse/ACS-3525", ,P3
ACS-3524,Major,Open,"ACS has duplicate permission for Service Control in UMS",2016-04-14,"https://incognitosoftware.atlassian.net/browse/ACS-3524", ,P4
ACS-3522,Major,Open,"Viewable By not changeable.",2016-04-14,"https://incognitosoftware.atlassian.net/browse/ACS-3522", ,P2
ACS-3520,Major,Open,"/deviceoperations/cancellation doesnt work on failed operations",2016-04-13,"https://incognitosoftware.atlassian.net/browse/ACS-3520", ,P2
ACS-3513,Major,Open,"Device group created through campaign creation has no devices associated with it",2016-04-13,"https://incognitosoftware.atlassian.net/browse/ACS-3513", ,P2
ACS-3508,Major,Untriaged,"There is no consistency with the saving process for associated view",2016-04-13,"https://incognitosoftware.atlassian.net/browse/ACS-3508", ,P3
ACS-3506,Major,Open,"Device Group details view doesnt prompt unsaved change warning",2016-04-13,"https://incognitosoftware.atlassian.net/browse/ACS-3506", ,P3
ACS-3504,Major,Open,"Attempting to terminate/pause a campaign without appropriate permission results in infinite spinning wheel",2016-04-12,"https://incognitosoftware.atlassian.net/browse/ACS-3504", ,P2
ACS-3495,Major,Open,"Back button is disabled after clicking cancel",2016-04-12,"https://incognitosoftware.atlassian.net/browse/ACS-3495", ,P3
ACS-3492,Major,Open,"Campaign (bulk operation) Failed operations should get from Active operations",2016-04-12,"https://incognitosoftware.atlassian.net/browse/ACS-3492", ,P3
ACS-3491,Major,Open,"Issue with removing Device Models device-log parameters",2016-04-12,"https://incognitosoftware.atlassian.net/browse/ACS-3491", ,P3
ACS-3490,Major,Open,"Device Summary requires permissions for Device Models but opens up other abilities",2016-04-12,"https://incognitosoftware.atlassian.net/browse/ACS-3490", ,P3
ACS-3485,Major,In Development,"Interface should not expose areas that the user doesnt have permissions for",2016-04-12,"https://incognitosoftware.atlassian.net/browse/ACS-3485", ,P2
ACS-3484,Major,Open,"accessing an area with insufficient privileges results in session timeout",2016-04-12,"https://incognitosoftware.atlassian.net/browse/ACS-3484", ,P3
ACS-3483,Major,Open,"[GUI] Data composer graphs have inconsistent y-axis",2016-04-12,"https://incognitosoftware.atlassian.net/browse/ACS-3483", ,P4
ACS-3474,Major,In Development,"Resync device when with existing Bulk Operation SetParameterValue not properly implemented",2016-04-11,"https://incognitosoftware.atlassian.net/browse/ACS-3474", ,P3
ACS-3470,Major,Open,"use can no longer not define oracle port in config.txt",2016-04-11,"https://incognitosoftware.atlassian.net/browse/ACS-3470", ,P2
ACS-3469,Major,Open,"Oracle upgrade failed from 3.1.1.7 to 3.2",2016-04-11,"https://incognitosoftware.atlassian.net/browse/ACS-3469", ,P2
ACS-3465,Major,Open,"Null pointer exception when importing service class zip produced by service class export",2016-04-10,"https://incognitosoftware.atlassian.net/browse/ACS-3465", ,P2
ACS-3461,Major,Open,"Overlaying text when un-setting device model in device info",2016-04-10,"https://incognitosoftware.atlassian.net/browse/ACS-3461", ,P4
ACS-3459,Major,Open,"Attempting to CRUD certain ACS objects without permission results in being redirected to log in page",2016-04-10,"https://incognitosoftware.atlassian.net/browse/ACS-3459", ,P2
ACS-3458,Major,Open,"Internet Explorer 11 freezes often at multiple places",2016-04-10,"https://incognitosoftware.atlassian.net/browse/ACS-3458", ,P3
ACS-3455,Major,Open,"Retry device operation message says retry successfully",2016-04-08,"https://incognitosoftware.atlassian.net/browse/ACS-3455", ,P4
ACS-3452,Major,Open,"[GUI] Status table heading not present for failed device operations",2016-04-08,"https://incognitosoftware.atlassian.net/browse/ACS-3452", ,P4
ACS-3451,Major,Open,"User Session times out and refreshed we get 403 Forbidden. Refresh again we get 401 Unauthorized.",2016-04-08,"https://incognitosoftware.atlassian.net/browse/ACS-3451", ,P3
ACS-3449,Major,Untriaged,"[GUI] Criteria based Device Group details page is not updated after user changed the criteria",2016-04-08,"https://incognitosoftware.atlassian.net/browse/ACS-3449", , 
ACS-3448,Major,Untriaged,"[GUI] Creating a new dashboard on Safari sometimes doesnt have a drop down menu under Viewable by",2016-04-07,"https://incognitosoftware.atlassian.net/browse/ACS-3448", ,P3
ACS-3438,Major,Open,"[GUI] Script Instance event procedure Associated Object opens new browser tab",2016-04-07,"https://incognitosoftware.atlassian.net/browse/ACS-3438", ,P4
ACS-3436,Major,Open,"allow uploading of reports through GUI in acs-cloud",2016-04-07,"https://incognitosoftware.atlassian.net/browse/ACS-3436", ,P3
ACS-3435,Major,Open,"[GUI] Clicking back UI Guide after clicking help results in help dialogue disappearing",2016-04-07,"https://incognitosoftware.atlassian.net/browse/ACS-3435", ,P4
ACS-3434,Major,Open,"ACS always logs Email sent even when email processing failed",2016-04-07,"https://incognitosoftware.atlassian.net/browse/ACS-3434", ,P4
ACS-3433,Major,Open,"Null pointer when getting session info from device without a device model.",2016-04-07,"https://incognitosoftware.atlassian.net/browse/ACS-3433", ,P2
ACS-3429,Major,Open,"[GUI] IN_EXECUTION Report Instances do not display tooltip for status",2016-04-07,"https://incognitosoftware.atlassian.net/browse/ACS-3429", ,P4
ACS-3428,Major,Untriaged,"Attempting to edit a terminated campaign results in back end error shown to front end user",2016-04-06,"https://incognitosoftware.atlassian.net/browse/ACS-3428", ,P3
ACS-3426,Major,Open,"Clicking help on Safari has glitchy pan animation",2016-04-06,"https://incognitosoftware.atlassian.net/browse/ACS-3426", ,P3
ACS-3425,Major,Open,"Tooltip persists between pages if navigate using shortcut keys",2016-04-06,"https://incognitosoftware.atlassian.net/browse/ACS-3425", ,P4
ACS-3424,Major,Open,"Campaign with Backup operation results in IN_PROGRESS count of -1",2016-04-06,"https://incognitosoftware.atlassian.net/browse/ACS-3424", ,P3
ACS-3423,Major,Open,"Cannot view active operations of a device without device model",2016-04-06,"https://incognitosoftware.atlassian.net/browse/ACS-3423", ,P3
ACS-3421,Major,Open,"Campaign with Script operation that fails doesnt add to COMPLETED_WITH_ERROR count",2016-04-06,"https://incognitosoftware.atlassian.net/browse/ACS-3421", ,P3
ACS-3420,Major,Open,"Service to provide reload as post upgrade step or automatically reload software version",2016-04-06,"https://incognitosoftware.atlassian.net/browse/ACS-3420", ,P3
ACS-3416,Major,Untriaged,"Document missing ACS Test Cases for future Regression Test",2016-04-06,"https://incognitosoftware.atlassian.net/browse/ACS-3416", , 
ACS-3409,Major,Open,"Parameter attributes task with notification Not Set doesnt create device operation",2016-04-05,"https://incognitosoftware.atlassian.net/browse/ACS-3409", ,P3
ACS-3408,Major,Open,"service does not validate against empty name for device model",2016-04-05,"https://incognitosoftware.atlassian.net/browse/ACS-3408", ,P3
ACS-3407,Major,Open,"[GUI] Mouse pointer should be hand when hovering over device operation",2016-04-05,"https://incognitosoftware.atlassian.net/browse/ACS-3407", ,P4
ACS-3398,Major,Open,"Problematic device filter displays synchronized devices",2016-04-05,"https://incognitosoftware.atlassian.net/browse/ACS-3398", ,P2
ACS-3390,Major,Untriaged,"[GUI] Device-Log parameters can be added without a name",2016-04-05,"https://incognitosoftware.atlassian.net/browse/ACS-3390", , 
ACS-3388,Major,Open,"cannot remove script definitions from the gui that are missing from the disk",2016-04-05,"https://incognitosoftware.atlassian.net/browse/ACS-3388", ,P2
ACS-3375,Major,Open,"Device Operations do not appear to be clickable (no hand cursor)",2016-04-04,"https://incognitosoftware.atlassian.net/browse/ACS-3375", ,P4
ACS-3373,Major,Open,"[GUI] wrong time displayed when connection request made for device",2016-04-04,"https://incognitosoftware.atlassian.net/browse/ACS-3373", ,P2
ACS-3369,Major,Open,"Cannot retry single device operation with COMPLETED_WITH_ERROR state",2016-04-04,"https://incognitosoftware.atlassian.net/browse/ACS-3369", ,P2
ACS-3368,Major,Open,"[GUI] Update device info page says there are unsaved changes after saving",2016-04-04,"https://incognitosoftware.atlassian.net/browse/ACS-3368", ,P3
ACS-3367,Major,Open,"Cannot firmware upgrade a single device",2016-04-04,"https://incognitosoftware.atlassian.net/browse/ACS-3367", ,P2
ACS-3360,Major,Open,"service configuration widgets unit input field is missing underline",2016-04-02,"https://incognitosoftware.atlassian.net/browse/ACS-3360", ,P4
ACS-3358,Major,In Development,"Search device by deviceGroupId takes a very long time",2016-04-02,"https://incognitosoftware.atlassian.net/browse/ACS-3358", ,P2
ACS-3355,Major,Open,"[GUI] going into device summary page waits for connection timeout period if device unresponsive",2016-04-01,"https://incognitosoftware.atlassian.net/browse/ACS-3355", ,P2
ACS-3354,Major,In Development,"[GUI] bad service configuration script list behavior when creating service config tile with removed script",2016-04-01,"https://incognitosoftware.atlassian.net/browse/ACS-3354", ,P2
ACS-3350,Major,Open,"[GUI] clicking on script in campaigns associated task navigates to /ies url",2016-04-01,"https://incognitosoftware.atlassian.net/browse/ACS-3350", ,P4
ACS-3345,Major,Open,"[GUI] Text input fields in Device Summary on Firefox cut off the text",2016-04-01,"https://incognitosoftware.atlassian.net/browse/ACS-3345", ,P4
ACS-3338,Major,Open,"[GUI] Safari cannot load device model details if there are images uploaded and linked to it.",2016-04-01,"https://incognitosoftware.atlassian.net/browse/ACS-3338", ,P3
ACS-3336,Major,Open,"[GUI] Clicking back while creating device model results in blank screen",2016-04-01,"https://incognitosoftware.atlassian.net/browse/ACS-3336", ,P3
ACS-3329,Major,In Development,"[BE] Service takes longer than 10 seconds to response to device query on large db",2016-04-01,"https://incognitosoftware.atlassian.net/browse/ACS-3329", ,P2
ACS-3326,Major,Open,"[GUI] Add a filter to the file browser to allow users to select only jrxml files.",2016-04-01,"https://incognitosoftware.atlassian.net/browse/ACS-3326", ,P4
ACS-3323,Major,Open,"[GUI] Bad naming in Bulk Operation Details Tile View",2016-04-01,"https://incognitosoftware.atlassian.net/browse/ACS-3323", ,P3
ACS-3319,Major,Open,"[GUI] Campaign details do not automatically update",2016-04-01,"https://incognitosoftware.atlassian.net/browse/ACS-3319", ,P2
ACS-3318,Major,Open,"[GUI] Campaign details confusing",2016-04-01,"https://incognitosoftware.atlassian.net/browse/ACS-3318", ,P2
ACS-3317,Major,Open,"[GUI] Archiving multiple campaigns ",2016-04-01,"https://incognitosoftware.atlassian.net/browse/ACS-3317", ,P2
ACS-3311,Major,Open,"Test cases for DEVICE_DISCOVERY_CRITERIA in CWMP",2016-03-31,"https://incognitosoftware.atlassian.net/browse/ACS-3311", ,P3
ACS-3298,Major,Open,"acscli encounters permission issue when setting under entity user",2016-03-30,"https://incognitosoftware.atlassian.net/browse/ACS-3298", ,P3
ACS-3287,Major,Open," Error processing Expect: 100-continue with OpenWRT",2016-03-29,"https://incognitosoftware.atlassian.net/browse/ACS-3287", ,P3
ACS-3285,Major,Untriaged,"When attempting to CRUD dashboards without appropriate permissions appropriate error messages are not displayed",2016-03-29,"https://incognitosoftware.atlassian.net/browse/ACS-3285", , 
ACS-3283,Major,Open,"When creating a dashboard without device model permission GUI does not provide an error message",2016-03-29,"https://incognitosoftware.atlassian.net/browse/ACS-3283", ,P3
ACS-3282,Major,Open,"When creating a new dashboard if Device Model permission does not exist in users role but Create Dashboard permission does the dashboard entry will still be created in database",2016-03-29,"https://incognitosoftware.atlassian.net/browse/ACS-3282", ,P3
ACS-3274,Major,Open,"Create Device model from Discovered Device should automatically assign DM",2016-03-29,"https://incognitosoftware.atlassian.net/browse/ACS-3274", ,P2
ACS-3273,Major,Open,"Auto Assign takes too long and cannot be monitored",2016-03-29,"https://incognitosoftware.atlassian.net/browse/ACS-3273", ,P2
ACS-3270,Major,In Development,"Service configuration script error message needs improvement.",2016-03-29,"https://incognitosoftware.atlassian.net/browse/ACS-3270", , 
ACS-3263,Major,Open,"[GUI] Various Campaign task issues",2016-03-25,"https://incognitosoftware.atlassian.net/browse/ACS-3263", ,P2
ACS-3251,Major,Untriaged,"Firmware recipe step file upload leads to Filename is empty or null error",2016-03-24,"https://incognitosoftware.atlassian.net/browse/ACS-3251", , 
ACS-3241,Major,Open,"Ignoring ALL_AT_ONCE_DISCOVERY_ROOT value  due to illegal format!",2016-03-22,"https://incognitosoftware.atlassian.net/browse/ACS-3241", ,P3
ACS-3240,Major,Open,"XMPP_CONREQ_SERVER ERROR on Startup",2016-03-22,"https://incognitosoftware.atlassian.net/browse/ACS-3240", ,P3
ACS-3235,Major,Open,"User can send multiple requests through GUI if you click buttons multiple times",2016-03-22,"https://incognitosoftware.atlassian.net/browse/ACS-3235", ,P4
ACS-3231,Major,Open,"Device > Perform Action needs to support user-defined actions",2016-03-22,"https://incognitosoftware.atlassian.net/browse/ACS-3231", ,P2
ACS-3230,Major,Untriaged,"RestClient in JBaseJavascript returns incorrectly for PUT and DELETE requests",2016-03-22,"https://incognitosoftware.atlassian.net/browse/ACS-3230", , 
ACS-3229,Major,Open,"[GUI] Search is not intuitive",2016-03-22,"https://incognitosoftware.atlassian.net/browse/ACS-3229", ,P3
ACS-3218,Major,Open,"cwmp will not start up if monitor parameter database config is set to different ip",2016-03-21,"https://incognitosoftware.atlassian.net/browse/ACS-3218", ,P3
ACS-3212,Major,Untriaged,"[Documentation][REST API] Explanation of Device actions  ",2016-03-21,"https://incognitosoftware.atlassian.net/browse/ACS-3212", , 
ACS-3211,Major,Untriaged,"[Documentation][REST API] Document device info REST API",2016-03-21,"https://incognitosoftware.atlassian.net/browse/ACS-3211", , 
ACS-3210,Major,Open,"progression text bubble persist on screen after navigate away from firmware upgrade progess page",2016-03-21,"https://incognitosoftware.atlassian.net/browse/ACS-3210", ,P4
ACS-3191,Major,Open,"[GUI] Graph does not span the whole width of the Data Composer Graph Tile",2016-03-18,"https://incognitosoftware.atlassian.net/browse/ACS-3191", ,P3
ACS-3188,Major,Open,"Dashboard panel backbone models collection contains dashboards and allows for  cyclic references",2016-03-17,"https://incognitosoftware.atlassian.net/browse/ACS-3188", ,P4
ACS-3183,Major,Open,"IGNORE_DISCOVERY_ERRORS value (false) is not respected",2016-03-17,"https://incognitosoftware.atlassian.net/browse/ACS-3183", ,P2
ACS-3160,Major,Untriaged,"[GUI] custom value generator script selected not shown after reload",2016-03-16,"https://incognitosoftware.atlassian.net/browse/ACS-3160", , 
ACS-3157,Major,Open,"[GUI] clicking back button when changing script definition associated with event procedure does nothing",2016-03-15,"https://incognitosoftware.atlassian.net/browse/ACS-3157", ,P4
ACS-3131,Major,Open,"Event procedures contains redundant status and active columns",2016-03-10,"https://incognitosoftware.atlassian.net/browse/ACS-3131", ,P4
ACS-3128,Major,In Development,"After users session times out if the user tries to use the home or back button user is redirected to empty hub",2016-03-10,"https://incognitosoftware.atlassian.net/browse/ACS-3128", ,P2
ACS-3120,Major,Open,"Trying to modify a terminated campaign results in an error thats not useful to the user",2016-03-09,"https://incognitosoftware.atlassian.net/browse/ACS-3120", ,P4
ACS-3118,Major,Open,"Select all functionality works on pages where select toggle button is hidden",2016-03-09,"https://incognitosoftware.atlassian.net/browse/ACS-3118", ,P4
ACS-3116,Major,Open,"Available Operations pages operation names are not consistent",2016-03-09,"https://incognitosoftware.atlassian.net/browse/ACS-3116", ,P4
ACS-3110,Major,Untriaged,"Scrollbar disappearing ",2016-03-08,"https://incognitosoftware.atlassian.net/browse/ACS-3110", , 
ACS-3109,Major,Open,"Flow for removing Devices and Service Classes from a device group is not intuitive",2016-03-08,"https://incognitosoftware.atlassian.net/browse/ACS-3109", ,P3
ACS-3086,Major,Open,"Device Actions execution api not implemented.",2016-03-04,"https://incognitosoftware.atlassian.net/browse/ACS-3086", ,P2
ACS-3077,Major,Open,"BulkOperation Websocket response used string instead of boolean",2016-03-03,"https://incognitosoftware.atlassian.net/browse/ACS-3077", ,P3
ACS-3059,Major,Open,"log4j error on tomcat startup",2016-02-26,"https://incognitosoftware.atlassian.net/browse/ACS-3059", ,P4
ACS-3033,Major,Open,"RFC-6761 S6.5 violation on domain name use",2016-02-19,"https://incognitosoftware.atlassian.net/browse/ACS-3033", ,P3
ACS-3007,Major,Open,"Firmware updates does not display available updates",2016-02-15,"https://incognitosoftware.atlassian.net/browse/ACS-3007", ,P2
ACS-2995,Major,Untriaged,"Sub header title fix",2016-02-11,"https://incognitosoftware.atlassian.net/browse/ACS-2995", ,P3
ACS-2986,Major,Untriaged,"missing command for opening up repo in ums centos instruction",2016-02-10,"https://incognitosoftware.atlassian.net/browse/ACS-2986", , 
ACS-2969,Major,Open,"DeviceModel: Cannot edit supported parameter definition (data type) for vendor specific parameter ",2016-02-05,"https://incognitosoftware.atlassian.net/browse/ACS-2969", ,P2
ACS-2966,Major,Open,"Appears ACS 3 does not support generic parameter matching as ACS2",2016-02-04,"https://incognitosoftware.atlassian.net/browse/ACS-2966", ,P2
ACS-2926,Major,In Development,"unsaved form warning pops up after saving changes to device",2016-01-21,"https://incognitosoftware.atlassian.net/browse/ACS-2926", ,P2
ACS-2924,Major,In Development,"Install DU Execution Environment GUI review / update",2016-01-21,"https://incognitosoftware.atlassian.net/browse/ACS-2924", ,P2
ACS-2804,Major,Untriaged,"Implement support for configuration parameters related to limiting user access to devices from particular device groups",2015-09-21,"https://incognitosoftware.atlassian.net/browse/ACS-2804", , 
ACS-2768,Major,Untriaged,"REQ03 - Re-discover the device (while re-cording traffic) with changed parameters (e.g. the discovery algorithm)",2015-09-16,"https://incognitosoftware.atlassian.net/browse/ACS-2768", , 
ACS-2761,Major,Untriaged,"REQ01 - Import devices from CSV file",2015-09-16,"https://incognitosoftware.atlassian.net/browse/ACS-2761", , 
ACS-2458,Major,Open,"GUI navigation in Firefox is generally sluggish compared to Chrome",2015-06-11,"https://incognitosoftware.atlassian.net/browse/ACS-2458", , 
ACS-932,Major,Untriaged,"Script parameter handling",2014-08-19,"https://incognitosoftware.atlassian.net/browse/ACS-932", , 
ACS-3857,Minor,Untriaged,"Misspelling in ACS logs",2016-06-06,"https://incognitosoftware.atlassian.net/browse/ACS-3857", , 
ACS-3851,Minor,Untriaged,"No where to enter report parameters",2016-06-02,"https://incognitosoftware.atlassian.net/browse/ACS-3851", , 
ACS-3844,Minor,Untriaged,"fadeOverflow css needs to be changed when hover  ",2016-05-31,"https://incognitosoftware.atlassian.net/browse/ACS-3844", ,P3
ACS-3705,Minor,Untriaged,"Loader shows twice after clicking Active Operations",2016-05-03,"https://incognitosoftware.atlassian.net/browse/ACS-3705", ,P4
ACS-3704,Minor,Open,"Click on the dot on top of the device icon does not show dropdown",2016-05-03,"https://incognitosoftware.atlassian.net/browse/ACS-3704", ,P4
ACS-3598,Minor,Open,"/etc/init.d/cwmp status returns error even if service is running",2016-04-21,"https://incognitosoftware.atlassian.net/browse/ACS-3598", ,P3
ACS-3353,Minor,Open,"[GUI] Day of week ordering differ from reading order",2016-04-01,"https://incognitosoftware.atlassian.net/browse/ACS-3353", ,P3
ACS-3268,Minor,Untriaged,"Install Guide declares install Deb 6 & Deb 7",2016-03-28,"https://incognitosoftware.atlassian.net/browse/ACS-3268", , 
ACS-3249,Minor,Untriaged,"Error 403 OK when deviceIdStruct is present but missing data",2016-03-23,"https://incognitosoftware.atlassian.net/browse/ACS-3249", , 
ACS-3242,Minor,Open,"NOTIFY_AUTO_CONFIGURATION_SERVICE is not specified to have a default value",2016-03-22,"https://incognitosoftware.atlassian.net/browse/ACS-3242", ,P3
ACS-3209,Minor,Open,"Device with unknown manufacturer wont show up in available recipe view.",2016-03-21,"https://incognitosoftware.atlassian.net/browse/ACS-3209", ,P5
ACS-3201,Minor,Open,"When creating firmware recipe Required Version is mandatory yet is not starred",2016-03-18,"https://incognitosoftware.atlassian.net/browse/ACS-3201", ,P3
ACS-3142,Minor,Open,"[GUI] new firmware recipe step page is has title untitled",2016-03-14,"https://incognitosoftware.atlassian.net/browse/ACS-3142", ,P4
